9|9|9|9|9|9|9|10.07718242307208|14.303571428571429|17.428890306122447|
23|25|27|31|34.82837370242214|40|45.138945233265716|48.85175202156334|61.42081211266992|63.23887004266629|
35|39|41|43|51.577860451525524|62.277628032345014|65.08960724178868|78.76033834586465|84.1554769291127|89.41234223952739|
12|12|12|13|13|14|14|15|24.87601078167116|33.03678409776157|
36|36|37|39.847579341757275|43|43|57.625|68.95758928571428|69.17789757412399|93.15863732463437|
15|18|19|23|29.196779964221825|35.77628032345014|37.57150101419878|43.57423836282741|44.940214035062226|54.235997936630056|
12|12|13|14.226661873976743|18.333333333333336|19.660714285714285|20.521367521367523|22.42587601078167|24.585778061224488|29.26027128544547|
7|7|7|7|7|7|7|15.88996841022627|18.896491568756336|20.538430179778345|
2|2|2|2|2|3|3|3|5.175202156334231|6.752370296641262|
13|13|14|14|14|15|17|17.60112359550562|18|19.229611160207046|
8|8|8|8|8|8|8|8.957495487175182|12.714285714285715|15.49234693877551|
4|4|5|5|5|6|6|8|9.350404312668463|12.779673207837781|
6|6|6|6|6|6|6|12.718121615381385|13.723388476144741|19.204164059038|
21|21|23|23|23|24|25|26|43.85175202156334|57.79547518544619|
12|13|13|13|14|14|15|16|26.6010781671159|35.287574196641984|
6|6|7|7|7|7|8|8|12.80053908355795|17.281253405598623|
7|7|7|7|7|7|7|7|7|7|
21|21|21|22|22|23|24|24|39.67654986522911|51.76817227424968|
10|10|10|10|10|10|10|11|18.975741239892184|24.75869108768463|
9|9|9|9|10|10|10|19.03432370597372|20.6348691485582|28.785206354708713|
13|13.748782961460446|15|17.80821917808219|18|19.58660161381122|20.13774597495528|24.267008234100636|27.326145552560646|36.81329691007767|
1|1|1|1|1|1|1|1|1|1|
24|24|30|38.81874186642039|39.0261748958953|39.5609756097561|41|41|64.7277628032345|87.9319897414288|
7|7|7|9|9|9|15.510791366906474|15.80053908355795|17.360540344702656|19.456455561932852|
9|10|11|12|13|15.525606469002696|20.257110889923787|24.8633595077717|26.479438800193517|26.740107347262917|
21|21|21|21|22|22|22|24|36.95148247978437|48.79231478992451|
3|3|3|3|3|3|3|3.1739785930790596|5.018691588785046|6.377063498995545|
6|6|6|7|8|8|8|8.223529411764705|9.56887298747764|14.490764548740618|
8.485192697768763|9|9|9|9|10|11.858823529411765|12.766920415224913|15.525606469002696|20.257110889923787|
14|14|15|16|16.33415368792242|17|24.25|26.6010781671159|28.29017857142857|35.287574196641984|
20|20.25334685598377|21|25.397260273972602|27|28.305882352941175|29.393507224620002|31.99128027681661|42.57681940700809|57.871063127992386|
31|32|32|34|34.33184584178498|36|36|37|59.82749326145552|80.3789641167966|
6|6|6|6|6|6|7.080252539371251|8.521272566595126|10.793447443032658|14.386476028032476|
9|9|10|11|11|13|18.748365443832995|20.41834995581366|20.792590343152142|23.17645538037278|
13|13|14|15|26.978128411219362|28.326145552560646|33.00920226508589|35.41125864175572|37.53836429552241|47.599820899365504|
11|13|13|15|16|19.542006920415226|21.700808625336926|24.48367139959432|27.734548572009793|34.96554784220466|
2|2|2|2|2|2|2|2.1159857287193735|3.3457943925233646|4.25137566599703|
13|13|14|17|22.647584973166367|25.710953346855984|28.326145552560646|32.18952860901417|36.161336294327484|37.53836429552241|
27|28|28|28|30|35.17144536333487|48.85714285714286|53.2021563342318|60.79081632653062|70.57514839328397|
11|11|11|11|11|11|12|12|14.893258426966291|16.271209443252115|
38|40|42|47|58.39355992844365|62.12328767123287|69.77131409589703|71.97710639894915|85.8032345013477|110.21312690259442|
46|46|48|49|52|91.70350404312669|118.49121991267137|123.81509487427061|137.76734467111854|143.179724037905|
10|10|10|10|11|11.196869358968977|15.892857142857142|18.975741239892184|19.365433673469386|24.75869108768463|
17|17|19|21.4|23.79764705882353|24|24|24.303844297048826|33.964285714285715|42.01466836734694|
15|15|19.04993230762772|19.764705882352942|22.647584973166367|23.94578313253012|25.87601078167116|29.28091885614748|32.824822726661225|33.761851483206314|
17|17|17|18|19|19|19|19|31.051212938005392|40.514221779847574|
24|24|24|24|27.662905104739515|29|38.73214285714286|47.824298469387756|50.02695417789757|65.2729128675322|
16|17|17|17|17|21.874136791066704|21.9390243902439|22.223825104104698|24.15742397137746|28.316396836927687|
28|28|29|31|45.31484794275492|55.2021563342318|59.60060851926977|69.13206560655775|72.02528316417346|86.80996887458906|
8|9|9.427991886409735|10|10|13.176470588235293|16.098389982110913|18.975741239892184|22.393054149318576|24.75869108768463|
14|15|15|15|15|17|18|18|30.051212938005392|39.78915439440283|
3|3|3|4|4|4|6.039355992844365|8.132657200811359|9.662413849489647|9.819056445408126|
2|2.4075921453323534|3|3|3|3|3|3|3.6410256410256414|5.493754109138725|
9|10.07718242307208|12.698630136986301|13|13|14.303571428571429|14.696753612310001|17.428890306122447|18.700808625336926|25.559346415675563|
6|6|6|6|6|7|7|7|12.075471698113207|15.755530692162944|
14|16|16|16|17|19.03467791024726|27.017857142857142|27.326145552560646|32.92123724489796|36.81329691007767|
4|4|4|4|4|4|4|4|5.47945205479452|6.026646650403452|
8|9|9|10|12|14|14|14|19.150943396226413|27.88572445710217|
4|4|4|4|5|5|5|5.598434679484488|7.946428571428571|9.682716836734693|
8|9|10|11|12|13.436243230762772|15.525606469002696|19.07142857142857|20.257110889923787|23.238520408163264|
26|28|31|34|34.35616438356164|38.27549194991056|40.70707449802965|47.514338471779084|58.65229110512129|76.5268633619343|
3|3|3|3.1796116504854366|4.109589041095891|4.21875|4.2502356489772835|4.519984987802589|4.676773125377819|4.7138671875|
28|30|32|34.18364048528609|38.21176470588235|41.13785467128028|45.85714285714286|54.47708894878706|59.02295918367347|70.49956045073779|
22|22|22|22|22|23|23|24|40.40161725067385|53.293894987685356|
8|8|8|9|9|9|9|9|9|9|
1.0196779964221825|1.215287856797291|2|2|2|2|2|2|2.9622641509433962|3.425240299038804|
16|18|18|18|18|22|30.767123287671232|31.051212938005392|32.379620942015386|40.514221779847574|
21|22|25|26|27|28.623529411764707|37.23613595706619|43.57681940700809|52.076614184398466|58.59613051343713|
56|58|67|68.47058823529412|71|76.74948096885814|80|80|113.02964959568733|150.95411251008056|
17|18|19|20|20.547971602434075|22|27.122076124567474|28.71764705882353|34.50134770889488|45.01580197760842|
7|8|9|9|10|10|11.698630136986301|14.32689059861137|15.525606469002696|20.257110889923787|
4|4|4|4.4569424286405415|5|5|5|5|5.47945205479452|6.026646650403452|
19|20|20|20|21|22|23|23|26.767123287671232|30.900168887220865|
1|1|1|1|1|1.4180327868852458|1.5927841977962913|3.551908501110243|3.782776971456217|3.8200153353232738|
8|8.265314401622717|8.463942914877494|8.957495487175182|12.07871198568873|12.714285714285715|13.383177570093459|14.158198418463844|15.49234693877551|17.00550266398812|
4|4|4.713995943204868|5|6|6|6|6.588235294117647|7.549194991055456|10.941607575553743|
13|13|14|14|14|14|14|15|25.87601078167116|33.761851483206314|
10|10|10|10|10|11.196869358968977|15.892857142857142|17.25067385444744|19.365433673469386|22.50790098880421|
9|9|9|12|18.700808625336926|21.237297627695764|21.704116667331917|23.757939474221764|25.559346415675563|33.28482068932985|
8|8|9|9|14|14|17.599973125503897|18.18032786885246|18.25067385444744|23.232968374248955|
27|27|27|29|38.83561643835616|46.36385813473447|51.2021563342318|59.557377049180324|66.89693630744424|69.12501362239449|
9|9|9|9|10|10|11|11.858823529411765|13.588550983899822|19.694893635996735|
6|7|7|7|7|7|7|9|15.525606469002696|20.257110889923787|
6|6|6|7|7|7|8|9|13.80053908355795|18.006320791043365|
13|13|13|13|13|14|16|16|16|16|
5|6|6|6|6|6|9.059033989266547|11.656795131845842|13.129929090664492|16.24652024900329|
17|18|18|21|34.23613595706619|38.67654986522911|40.91166328600406|51.04310488880493|51.18239130741225|59.896529866405544|
22|22|24|27|35.23613595706619|45.342697768762676|45.85175202156334|52.327524423270404|59.245609956335684|65.06701143596558|
7|8|8|8|8|8|9|10|16.525606469002696|20.982178275368533|
21|21|21|21|22|22|43.6644562120227|52.191808816763924|54.88328907045751|74.69090031574818|
12|12|12|13|15|16.927186096301583|21.87601078167116|22.42857142857143|29.216836734693878|30.86158194142734|
4|4|4|4|4|4|4|4|4|4|
5|5|5|5|5|5|5|5.598434679484488|7.946428571428571|9.682716836734693|
16|16|17|17|17|17|18|18|31.776280323450134|42.03994449328325|
12|12|14|15|19|19|20.17808219178082|21.463126290110715|28.776280323450134|39.86474233694902|
4|4|4|4|4|4|5|5|8.62533692722372|11.253950494402105|
3|3|3|3|3|3|4|5.93550668006401|7.155297532656023|7.4426431525043135|
24|25|26|27|28|33|43.78533094812165|51.323469266931426|55.2021563342318|72.02528316417346|
16|16|17|18|18|20|20|22|37.22641509433962|47.99165946193358|
10|10|10|10|11|11|11|11|18.975741239892184|24.75869108768463|
8|8|8|8|9|10|12.07871198568873|14.158198418463844|16.25067385444744|21.782833603359464|
5|5.927702972167415|8|8.946428571428571|10.272002551020407|10.62533692722372|12.704085265291592|12.766920415224913|15.485192697768763|22.93874589074631|
19|19|19|20|20|20|26|27|34.22641509433962|45.81645730559934|
49|51|55|56|81.55098389982112|99.22911051212938|120.80537525354968|123.24001726333336|132.9477917190372|167.22656413932992|
1|1|1|1|1|1|1|1.324640060621369|1.40625|1.5712890625|
5|5.758067062389491|5.891891891891892|6.080011897679952|6.1081031442844544|6.317073170731708|6.769662921348314|8.62533692722372|9.625368792022094|11.253950494402105|
7.383574505246366|8|9|9|9|14.525606469002696|18.705055413290793|19.52645153999187|19.53204350447904|27.994787711494745|
7|7|7|7|7|7|7|7|7|7|
7|7|7|7|7|7|8|8|8|8|
12|12|14|14.42404810881155|22.07142857142857|23.28767123287671|25.006377551020407|25.613248264214675|26.6010781671159|35.287574196641984|
5|6|6|6|6|6|6|6|10.350404312668463|13.504740593282524|
5|5|5.656795131845842|6|6|7.905882352941177|9.059033989266547|10.350404312668463|13.129929090664492|13.504740593282524|
6|6|6|6|6|6|6|6|6|6|
29|29|29|29|30|30|31|33.261339784224006|46.67857142857143|57.507015306122454|
11|11|12|12|12|12|13|13|25.6010781671159|34.562506811197245|
10|10|10|10|10|11|11|11|18.975741239892184|24.75869108768463|
3|3|3|3|3|3|3|3|4.254098360655737|4.778352593388874|
17|19|21|22|31.776280323450134|34.07865168539326|42.03994449328325|77.00101824955797|81.84923123145049|103.00898876361441|
9|9|10|10|14.698630136986301|15.436479639707262|15.608228980322004|18.957683827176695|18.975741239892184|24.75869108768463|
5|5|6|6|7.367993245676637|9.543183616937078|10.350404312668463|11.5093984962406|12.782324113856067|13.504740593282524|
27|27|27|27|27|27|50.18103448275862|53.47708894878706|66.9053953626635|69.77449306529304|
19|19|21|22|27.397260273972602|30.133233252017263|33.07692307692308|37.67654986522911|40.57001972386588|50.318037503360195|
14|19.547793963309683|25.349397590361445|29.118014225577006|32.77628032345014|33.62572124385163|34.399334148562886|37.2990904420276|42.765011878728|51.725639099762354|
15|15|15|15|16|20|21|21|31.22641509433962|43.64125514926511|
14|14|14|14|14|16|19.28767123287671|24.133796209420154|29.326145552560646|38.26343168096715|
20|20|21.298580121703854|22|24|26|30.216457960644007|37.405528656142295|42.40161725067385|54.74402975857484|
1|1|1|1|1.4811320754716981|1.6391134124778985|1.712620149519402|2.353932584269663|2.3783783783783785|2.7330603967281357|
57|60|60.66329203665937|78.51162790697674|85.01693711967545|111.56918937399422|122.34873137721199|153.68033982620375|155.3309787761567|228.02043997436306|
18|19|19|19|19|20|20|25.3125|28.283203125|30.9221727765779|
3|3|3|3|3|3|3.7489837858678428|5.349500395726157|5.952067669172932|6.507468447905477|
16|16|16|17|20.91780821917808|21.08235294117647|22.696747404844288|23.73672358791518|25.87601078167116|33.761851483206314|
54|59|61|61.12163112379832|87.82142857142857|88.62969588550985|105.75191326530611|124.33914807302232|135.97386498139917|173.29621598936842|
40|40|41|45|45.577896079089875|49|64.16071428571428|77.8032345013477|78.80899234693877|104.41258781903647|
12|14.303853955375251|15.346348809873641|17|21.25|26.522321428571427|27.177101967799643|27.6010781671159|31.855946441543644|36.01264158208673|
18.69642857142857|19|19|19|21|22|33.848314606741575|35.22641509433962|36.98002146193662|46.54152469104409|
18|19|19|19|20|22|23|26|41.85175202156334|56.34534041455671|
13|14|14|14|14|15|15|15|25.87601078167116|33.761851483206314|
1|1|1|1|1.0196779964221825|1.4310344827586206|1.8201438848920863|2|2|2.746389938408985|
10|10.649290060851927|11|13.051212938005392|15|15|16|18|18|18|
8|8|8|8|8|9|11.32876712328767|13.190091949709139|14.525606469002696|19.53204350447904|
14|14|14|14|15|15|19.308988764044944|19.54794520547945|21.83408029289231|22.230061925314317|
17|17|17|17|24.15742397137746|28.304709141274238|28.316396836927687|29.10143305663512|34.38345864661654|46.36694414607948|
14|15|16|16|18|26.6010781671159|30.11818468110743|31.422109337203675|32.89112177936561|35.287574196641984|
15|16|16|16|17|17|17|17.45384062381932|25.839285714285715|30.22672193877551|
52|53|57|62|63|69.4235294117647|83.5706618962433|106.67924528301887|122.65976247181433|140.34964145857703|
2|2|2|2|2.1159857287193735|3|3.3457943925233646|3.3831863389003565|3.73972602739726|4.25137566599703|
3|3|3|3|3|3|3|3|4|4|
15|15|16|18|18|21.874136791066704|21.9390243902439|22.223825104104698|25.87601078167116|33.761851483206314|
26|26|28|30|46.80500894454383|61.102425876010784|61.6578093306288|68.47326108608027|80.3033761742504|86.96428446527243|
22|23|23|24|36.49914783486933|41.67654986522911|53.21830704513917|63.89285084111794|70.0586570635531|98.68924496436077|
7|7|8|8|8|8|8|9|11.157894736842106|12.40443213296399|
13|13|14|15|16|16|29.27891193563816|36.28701716735306|38.70657690361667|52.84944184708931|
3|3|3|3|3|3|4|4|5|5|
8|8|8|8|8|8|8|8.463942914877494|13.383177570093459|17.00550266398812|
22|23|23|23|26|30.49531138491247|40.089285714285715|47.30188679245283|52.62404336734694|62.29705538320704|
14|14|14|15|17|17|27.66726296958855|28.326145552560646|31.105849635657847|37.53836429552241|
19|24|24|26|41.27549194991056|45.30188679245283|54.536308316430016|59.49257518959575|60.84692061231755|71.91578652864237|
3|3|4|4|4|5.674186851211072|6.687151425865516|6.900269541778975|8.679958819143263|9.003160395521682|
29|29|30|30|31|32|32|33|57.65229110512129|75.80179597648956|
2|3|3|3|3.6410256410256414|5|5.493754109138725|6|9.62533692722372|11.979017879846849|
14|14|14|14|17|28.6010781671159|31.099227047563076|36.21317127787295|36.737708967531475|40.07934227264958|
12|13|14|14.753316401494478|15|15|23.07142857142857|25.595663265306122|29.326145552560646|38.26343168096715|
11|12|12|13|13|14.555930166659671|20.660714285714285|21.42587601078167|25.175063775510203|28.535203900000727|
2|2|2|2|2|2|2.8201438848920866|2.8360655737704916|3.156461880855028|3.1855683955925826|
6|6|6|7|7|7|8|8|13.075471698113207|16.480598077607688|
39|40|41|41|45|49.79287970698124|71.90296495956873|73.33928571428572|86.21779336734694|96.13449480895953|
3|3|3|3|3|3|3|3|4.254098360655737|4.778352593388874|
4|4|5|6|6|6|7.8493150684931505|7.903171326702946|9.62533692722372|11.979017879846849|
20|20|20|22|22.393738717937953|25|31.785714285714285|38.73086734693877|44.85175202156334|58.52054257089094|
26|27|27|30|35|53.85530869710841|58.14731494920174|59.65229110512129|62.97653832461593|77.25193074737905|
17|18|18|20|21|31.051212938005392|40.514221779847574|43.19635248310314|43.59818923224128|64.0719479524875|
6|6|6|7|7|7|9.56887298747764|11.878584617944771|12.075471698113207|15.755530692162944|
71|77|85.03070295117755|87|91|91|116.96428571428572|144.9811320754717|146.92538265306123|196.12109037278134|
22|22|23|24|25|25|25|27|41.1266846361186|54.81961770112103|
19.083265720081137|20|20|21|21|26.67058823529412|30.706618962432916|36.22641509433962|45.1272657602911|47.266592076488834|
7|7|7|7|7|7|7|7|7|7|
4|4|4|4|4|4|5|5|8.62533692722372|11.253950494402105|
10|10|11|11|11|11|11|22.934905125729397|24.111978017449246|34.39150023476335|
31|33|34|36|62.82749326145552|64.43291592128801|82.55416627313082|85.48316430020284|95.26646866845076|119.14114849269077|
10|11|11|12|12|14.50311418685121|21.143509127789045|22.42587601078167|29.26027128544547|29.30501591242918|
37|37|38|41|41|68.7277628032345|90.83225928320776|91.06981497418245|110.02091403163556|119.1179481958446|
19|19|20|22|23|23|31.706618962432916|37.165270848467586|41.40161725067385|54.018962373130094|
3|3|3|3|3.099492900608519|4|4|4|8.46043165467626|9.469385642565086|
12|12|13|13|16|18.28048780487805|18.52544236178162|19.01918500892326|27.6010781671159|36.01264158208673|
7|7|7|7|7|7|7|7|9.763157894736842|10.853878116343491|
21|22|23|23|36.23613595706619|40.1266846361186|48.342697768762676|52.83736342148149|54.09455031567629|67.21356316010352|
73|75|75|78|80|93|106.54794520547945|127.40814411709513|172.1078167115903|240.78976467767598|
8|8|9|9|9|9|9|10|16.25067385444744|21.782833603359464|
15|15.573022312373226|16|17|20|20.647584973166367|21.764705882352942|32.44043884788611|34.50134770889488|45.01580197760842|
9|9|10|10|10|10|10|14.767348690562727|14.963855421686748|18.924227028596313|
18|19|19|19|20|21|22|25|32.77628032345014|42.765011878728|
11|11|12|12|13|14|19.13774597495528|22.42587601078167|23.757169235889542|29.26027128544547|
8|8.485192697768763|9|10|10|11.858823529411765|13.588550983899822|17.25067385444744|19.694893635996735|22.50790098880421|
10|11|13|13|14.97561500356828|15|15.035395597858418|15.292682926829269|23.87601078167116|32.31171671231682|
4|4|4|4|6.430575713594582|6.850480598077608|8.231971457438746|8.56271321002816|10.03582718963122|11.61755134291683|
13|13|13.199188640973627|15|15|18.44705882352941|19.13774597495528|23.87601078167116|29.6168232151283|32.31171671231682|
7|7|7|7|8|8|8|12.13894501534471|12.367469879518072|16.37578022935114|
7|8|8|8|8|10|12.32876712328767|13.559954963407769|17.25067385444744|22.50790098880421|
6|6|6|6|6|6|6|6|8.508196721311474|9.556705186777748|
20|21|22|22|22|23|23|23|38.67654986522911|51.04310488880493|
20.026064908722105|21|22|22|27.988235294117647|30.216457960644007|31|39.67654986522911|46.295909278979664|51.76817227424968|
9|9|9|9|10|10|12.690647482014388|13.32876712328767|13.9298179771064|14.204078463847626|
37|37|42|43|51.11082658158767|53|68.28571428571428|88.23979591836735|98.3288409703504|128.29503563618397|
59|67|68|87|89.62969588550985|112.30458221024259|117.33914807302232|136.48370397961025|149.4283897966449|168.28759529971325|
4|4|5|5|5.916803433909859|6.049195262678408|6.1017153349926625|7.704615031065075|8.62533692722372|11.253950494402105|
29|29|29|29|30|30|30|32|55.2021563342318|72.02528316417346|
24|25|25|25|26|27|27|31|46.57681940700809|60.77133266977136|
5|5|5|6|6|6|7|7|12.075471698113207|15.755530692162944|
28|28|29|29|51.47708894878706|67.60732021729238|68.32435829440357|76.9069171815475|85.13854455047404|114.31837324116893|
10.328192699276842|11|13|13|13|21.700808625336926|26.164754838168|27.734548572009793|28.3682362022237|40.19892704374624|
20|21|21|22|23|24|25|26|51.75202156334232|67.52370296641263|
2|2|2|2|2|3|3|4.465726824955797|4.5709582793950485|6.048072210988599|
27|33|33|34|57.37388193202147|62.102425876010784|69.82636916835699|81.02844355969515|83.15621757420844|100.03255927817024|
1|1|1|1|1|1|1|1.324640060621369|1.40625|1.5712890625|
15|16|16|17|17|17|18|20|29.326145552560646|38.26343168096715|
8|8|12|12|12|12|15.155172413793103|15.525606469002696|20.257110889923787|20.843787158145062|
7|8|8|9|9|10|11|11|18.975741239892184|24.75869108768463|
3|3|4.179611650485437|4.230769230769231|4.437602575432395|4.643439532472429|4.735700197238659|7.576286501244498|7.6147628381393835|10.876523218061461|
5|5|5|5|5|5|5|5|5|5|
5|5|5|5|5|5|6.966019417475728|7.739065887454048|8.62533692722372|11.253950494402105|
17|17|18|18|19|23|26.397260273972602|29.763370238318632|38.67654986522911|51.04310488880493|
11|11|11.313590263691683|12|13|15.811764705882354|18.118067978533094|22.42587601078167|26.259858181328983|29.26027128544547|
21|22|22|22|22|25|39.25581395348837|46.01414486000749|47.30188679245283|62.29705538320704|
5|5|5|5|5.656795131845842|6|6|6|7.905882352941177|8.51128027681661|
24|24|24|25|25.43123732251521|26|28|30|50.92722371967655|69.92566895038541|
11|11|11|12|13|13|13|13|21.42587601078167|28.535203900000727|
19|19|20|21|23|23.184157361151925|32.375|36.95148247978437|40.078125|48.79231478992451|
3|3|3|3|3|4|4|4|6.900269541778975|9.003160395521682|
8|8|8|8|8|8|8|8|8|8|
6|6|6|6|6|6|6|6|10.350404312668463|13.504740593282524|
28|28|29|29|29|30|42.78533094812165|50.81363026872034|51.02695417789757|65.99798025297694|
12|12|14|15|15|19|23.017241379310345|26.326145552560646|30.46923305588585|36.08822952463292|
13|13|13|14|15|16|20.13774597495528|24.267008234100636|27.6010781671159|36.01264158208673|
9|9|9|9|9|9|9|9|15.439655172413794|20.047339476813317|
5|5|5|5|5|5|6|6|8.577586206896552|11.137410820451842|
25|25|26|26|27|32.47092114101004|46.089285714285715|48.02695417789757|56.15975765306123|63.82277809664271|
5|5|6|7|7.219178082191781|8.670106961906548|10.293103448275861|12.075471698113207|13.36489298454221|15.755530692162944|
3|4|4|4|5|6|6.508196721311475|8.720639613007256|8.900269541778975|10.45329516641117|
15|15|15|15|15|16.795304038453466|23.839285714285715|25.87601078167116|29.04815051020408|33.761851483206314|
10|10|10|10|10|10|10|11|18.975741239892184|24.75869108768463|
17|17|19|20|21|21|27.177101967799643|31.855946441543644|36.22641509433962|47.266592076488834|
23|23|29|29|46.30188679245283|50.9498155775689|61.57198799776229|67.97388452207099|68.2728661298412|77.94909215353594|
6|6|6|7|7|7|7|13.060232220609578|13.28369663444423|14.358043987942391|
12|12|12|13|13|13|15|15|17.54794520547945|21.490335897917056|
67.8815415821501|71|73|79|92|94.87058823529412|103.70840787119857|136.455525606469|155.00995409691842|180.93945118097076|
13|13|13|13|13|16|19.91780821917808|23.366860574216552|24.6010781671159|33.8374394257525|
39|40|41|47|49.72566462490528|63.63483146067416|67.00269541778977|78.62616822429906|88.58146918432735|122.42976849937106|
12|12|13|14|18.81614630169311|23.117926394934706|26.87601078167116|28.165413533834588|32.597475832438235|34.48691886865105|
11|12|14|17.80581314878893|18.91780821917808|21.825354969574036|22.99699756051792|23.6010781671159|30.745829544659717|33.112372040307754|
13|13|14|14|16|17|19|19|32.32614555256065|40.43863383730138|
30|32|33|34.57841295495571|38|40|50.67857142857143|59.102425876010784|59.8641581632653|78.85324140336093|
9|10|10|11|11.858823529411765|12.766920415224913|14.29968099080503|14.32876712328767|17.975741239892184|24.033623702239883|
6|7|7|8|8|8|11.56887298747764|12.80053908355795|12.898262614366955|17.281253405598623|
8|8|9|9|9|9|9|9|15.525606469002696|20.257110889923787|
2|2|2|2|2|2|2|2|2.9622641509433962|3.425240299038804|
8|9|9.28676377985811|10|12.588550983899822|13.714285714285715|15.418134222560731|16.081632653061227|16.25067385444744|21.782833603359464|
12|12|13|13|14|14|14|15|17.17808219178082|20.353537249014824|
26|26|27|28|45.82468694096601|51.47708894878706|54.9658215010142|68.32435829440357|69.22231282933976|79.81134591172973|
4|4|4|4|4|4|4.55528719941195|5|6.769662921348314|7.396004292387325|
5|5|5|5|6|6|6.8493150684931505|7.533308313004316|11.075471698113207|15.0304633067182|
10|10|11|11|11|11|11|11|18.975741239892184|24.75869108768463|
15|15|15|15|16|17|20.54794520547945|22.599924939012947|29.326145552560646|38.26343168096715|
13|14|14|14|14|14|14|15|20.647584973166367|25.52694403819752|
22|22|23|24|24|26|35.23613595706619|41.96475625718044|44.85175202156334|58.52054257089094|
3|3|3|3|3|3|3|3|4.254098360655737|4.778352593388874|
16|16|18|21|22|22|23.15742397137746|27.806557838716596|31.776280323450134|42.03994449328325|
4|4|4|4|4|5|5|6|10.350404312668463|13.504740593282524|
9|9|9|9|9|10|10|11|18.975741239892184|24.75869108768463|
7|7|7|8|8|9|11.07871198568873|14.54239350912779|16.996733122674897|20.946509757291736|
1|1|1|1|1|1|1|1|1|1|
8|9|9|9|9|10|10|12|18.975741239892184|24.75869108768463|
20|20|23|23|23|23|24|26.872486461525543|38.14285714285714|46.47704081632653|
4|4|4|4|4|4|4|4|4|4|
4|4|4|4|4|5|5|6.080011897679952|6.1081031442844544|6.317073170731708|
10|10|10|10|10|10|12.762295081967213|14.335057780166622|17.25067385444744|22.50790098880421|
19|19|20|20|20|20|21|21|34.50134770889488|45.01580197760842|
35|35|35|38|38|42|50.84436493738819|60.922440084357135|69.45283018867924|92.35798199664345|
22|22|22|22|25|26|27|29|47.30188679245283|62.29705538320704|
17|18.902795852399144|19|19.764705882352942|22.647584973166367|28.42857142857143|32.75255102040816|32.77628032345014|32.824822726661225|42.765011878728|
25|25|25|27|27|28|29|31|52.75202156334232|68.24877035185736|
57|73|77.37647058823529|85.57840830449827|120.20485175202157|131.13362543187702|158.60731976224687|159.1566175776113|175.13851776075512|235.4056394567343|
24|29|31.81238455564418|36|36|36|44.089285714285715|51.75202156334232|54.9811862244898|67.52370296641263|
14|14|15|16|16|18|23.177101967799643|25.87601078167116|29.81659044869928|33.761851483206314|
11|11|12|12|12|12|12|12|20.700808625336926|27.009481186565047|
74|76|78|88|89|102|109.21824686940965|128.68372157027147|151.25606469002696|199.6708393574589|
9|9|10|10|11.648661052609484|21.700808625336926|27.734548572009793|29.50994133327736|35.09348434197605|38.14279890530265|
15|16|16|16|16|17.585722681667434|24.42857142857143|27.6010781671159|30.39540816326531|36.01264158208673|
9|9|10|10|14.098389982110913|17.25067385444744|18.427991886409735|21.373376152896395|22.50790098880421|26.3620165069595|
12|13|13|13|14|14|14|18.54496084869917|19.6875|21.998046875|
5|5|5|5|6|6|6|6|8.40566037735849|9.044232823068707|
10|10|10|11.574543610547666|12|13|15.13840830449827|16.176470588235293|17.80821917808219|19.58660161381122|
2|2|2|2|2|2|2|2.649280121242738|2.8125|3.142578125|
13|13|14|14|16|16|17|17|29.326145552560646|38.26343168096715|
13|14|14|14.410584899716476|15|16|16|16|19.526315789473685|21.707756232686982|
30|31|32|33|33|33|48.794520547945204|58.04728842184275|60.92722371967655|77.17634280483287|
3|3|3|4|4|5|5.196385380274119|5.254098360655737|8.62533692722372|11.253950494402105|
44|44.01693711967545|46|49|52|61.51764705882353|75.51162790697674|86.2533692722372|110.03967237936094|112.53950494402105|
15|15|15|16|16|18|18|18|21|21|
11|12|12|12|13|13|14|15|24.87601078167116|33.03678409776157|
8|8|8|8|8|9|12.07871198568873|14.158198418463844|15.525606469002696|20.257110889923787|
22|24|26|35.50684931506849|36.13267029461437|48.30188679245283|48.89072482105864|50.92114175133043|54.499794616206145|63.022122768651776|
18|18|18|18|20|20|23|24|41.67654986522911|53.21830704513917|
14|14|14|15|15|16|16|17|24.017241379310345|31.18475029726516|
11|11.540872210953346|12|14|14|16.129411764705882|19.627906976744185|22.42587601078167|28.1305326376162|29.26027128544547|
12|12|12|12|13|15|15|15|17.33093525179856|20.10693028311164|
15|15|15|15|15.815111561866125|16|16|17|17|18|
19|19|22|23|32.77628032345014|33.63896020539153|42.765011878728|56.781587149993705|66.07475273580272|70.54594399561911|
16|17|18|19|19|20|29.177101967799643|32.875624437965826|34.50134770889488|45.01580197760842|
7|7|9|10|11|11|13|14|18.87601078167116|28.686379785093102|
16|16|16|18|19|20|23.4|24.43294117647059|33.50134770889488|44.29073459216367|
22|22|23|23|25|30|37.25581395348837|44.9944668635853|51.75202156334232|67.52370296641263|
10|10|10|11|11|13|14.588550983899822|16.437812218982913|19.700808625336926|26.284413801120305|
20|21|22|22.393738717937953|23|25|31.785714285714285|36.67654986522911|38.73086734693877|49.59297011791545|
5|5|6|6|6.718121615381386|7|9.535714285714285|11.619260204081632|12.075471698113207|15.755530692162944|
1.0196779964221825|2|2|2|2|3.291657320128863|3.4501347708894876|4.066328600405679|4.501580197760841|4.909528222704063|
6|6|6|7|7|7|7|7|9.926229508196721|11.14948938457404|
21|21|22|23|25|33|33.7262969588551|40.19498145487246|41.40161725067385|54.018962373130094|
12|12|12|16.44705882352941|17|19.13774597495528|20|26.776280323450134|28.981529097481236|38.41460756605953|
42|44|53.283822572520045|56|58.903398926654745|71.03124989999392|76.69642857142857|89.42857142857142|92.19610969387755|117.8417404697728|
13|13|14|15|16.80821917808219|18.627906976744185|19.216738600112592|22.49723343179265|24.87601078167116|33.03678409776157|
2|2|2|2|2|2|2|4.66751389239707|4.939274669991569|5.897513768463196|
53|53|54|54|58|63|85.0608228980322|100.36732473334379|100.67924528301887|135.99923714590855|
51|52|56.116228852693006|58|65.34246575342466|78.05357142857143|79.16776130606118|93.15363881401618|96.99585459183675|121.54266533954272|
46|46|50|51.176330758574366|59.38356164383562|68.96378307374742|72.10714285714286|82.2533692722372|88.49170918367346|109.63923540224206|
29|30|32|33|34|34|39|39|58.102425876010784|78.12817401791617|
3|3|3|4|4|4|4|5.327862751665364|5.674165457184325|5.730023002984911|
64|66|67|68|70|86|104.6114333549124|127.92436683814799|161.94172932330827|181.42994763694952|
17|18.36961257371315|19|19|20|35.22641509433962|46.53635185340666|46.54152469104409|51.48991420360702|59.56176155905354|
12.48367139959432|13|13|14|14|17.44705882352941|21.13774597495528|22.700808625336926|28.459615957454535|30.31885415272695|
16|16|16.02758620689655|20|21|22.4|24.66726296958855|28.326145552560646|36.69162675867163|37.53836429552241|
17|17|17|17|18|18|18|19|23.65753424657534|26.750046913116908|
4|4|4.941277890466531|5|5|5|5|6.905882352941177|8.059033989266547|12.30244303362987|
4|4|4|4|4|4|4|4|4|4|
8|9|9|9|9|11.276368540363546|14.560240963855422|16.176205667104522|16.698630136986303|19.683517201335462|
10|10|10|10|10|10|11|11|18.975741239892184|24.75869108768463|
3|3|3|3|3|3|3|3|3|3|
6|6|6|6|7|7|9.58904109589041|10.546631638206042|11.075471698113207|15.0304633067182|
10|10|12|13|13|15|20.54794520547945|22.599924939012947|25.87601078167116|33.761851483206314|
16|16|16|19|19.91780821917808|22.977433880233942|23.366860574216552|24.33093525179856|25.6010781671159|34.562506811197245|
5|6|6|7|7|9|10.95890410958904|12.053293300806905|12.350404312668463|14.954875364172011|
11|12|12|12|12.256389452332655|16.951219512195124|17.129411764705882|17.145738004281938|17.581499107674006|18.441107266435985|
4|4|5|5|8.272667387338693|8.62533692722372|11.253950494402105|12.271167054058889|14.048230144552491|15.52198082382844|
22|22|25|26|33.28731213690326|35.556179775280896|37.21621621621622|40.40161725067385|53.293894987685356|53.666302135892884|
10|11|11|13|20.42587601078167|21.647584973166367|27.810136514555982|30.857505070993916|32.63263078727367|42.84378278659859|
6|7|7|7|8|8|8|8|9|9|
20|20|20.32100987850172|21|21|21|21|51.47989169220436|63.800166214830085|68.64961775924004|
43|43|45|45|45|47|48|48|84.07816711590297|107.96233680371401|
19|19|20|20|35.23613595706619|40.1266846361186|47.627180527383366|52.00987736444688|54.09455031567629|65.70159823739246|
15|15|16|16|16|16|16|17|28.326145552560646|37.53836429552241|
17|18|18|18|18|19|20|20|31.776280323450134|42.03994449328325|
5|5|5|5|5|5|6.8493150684931505|7.051282051282051|7.533308313004316|7.892833662064431|
3|3|3|3|4.254098360655737|4.437602575432395|4.5368964470088065|4.576286501244498|4.778352593388874|5.778461273298808|
14|17|17|17|23.66726296958855|24.106557377049178|27.077331362536952|28.59655172413793|35.54649364281348|40.86132580261593|
18|18|20|20|20|22.064470425255028|22.4|24.11529411764706|30.785714285714285|38.14158163265306|
2|2|2|2|2|2|2|2.649280121242738|2.8125|3.142578125|
12|12|13|13|14|16|18.91780821917808|22.99699756051792|24.150943396226413|31.511061384325888|
4|4|4|4|4|4|4|4|5.672131147540983|6.371136791185165|
20|21|21|21|23|25.988235294117647|32.21645796064401|39.67654986522911|46.68029315775479|51.76817227424968|
8|8|8|8|8|8|8|9|12.53883495145631|13.930318597417287|
4|4|4|4|4.450304259634889|6|6.58904109589041|7.549194991055456|8.848874011539902|9.437042597110151|
6|6|6|6|7|7|7|7|10.56887298747764|12.388423616155862|
11|11|11|13|13|13|13|14|18.975741239892184|24.75869108768463|
15|15|16|17|18|19|24.15742397137746|28.316396836927687|30.776280323450134|41.314877107838505|
10|10|10|10|10|13.176470588235293|15.098389982110913|17.25067385444744|21.883215151107485|22.50790098880421|
3|3|3|3|3|3|4.254098360655737|4.443396226415095|4.778352593388874|5.137860448558206|
8|8|8|9|13.588550983899822|14.525606469002696|17.485192697768763|19.53204350447904|19.694893635996735|24.36978037350493|
5|5|5|5|5|5|5|5.298560242485476|5.625|6.28515625|
4|4|4|5|5|5|7.549194991055456|8.62533692722372|8.848874011539902|11.253950494402105|
6|6|7|7|7|8|11.56887298747764|12.075471698113207|12.898262614366955|15.755530692162944|
8|8|8|8|8|8|10|10|17.25067385444744|22.50790098880421|
17|17.914990974350363|18|18|25.177101967799643|25.42857142857143|30.836268445121462|30.98469387755102|31.051212938005392|40.514221779847574|
7|7|7|7|8.747628833691634|12.075471698113207|12.4821675900277|13.888157894736842|15.184093045112782|15.755530692162944|
7|7|7|7|7|7|7|7|7|7|
2|2|2|2|2.1159857287193735|3|3.3457943925233646|4.25137566599703|5.175202156334231|6.752370296641262|
24.96734279918864|25|27|28|28|34.89411764705882|38.27549194991056|46.30188679245283|58.598352312609535|61.57198799776229|
10|11|11|11|11|11|12|12|18.975741239892184|24.75869108768463|
20|20|20|20|22|22|22|23|41.40161725067385|54.018962373130094|
3|3|3|3|4|4|5|5|7.900269541778975|9.728227780966426|
48|48|50|53|54|59|60|65|103.4043126684636|138.9750946302337|
17|17|18|18|18|19|19|19|20|21|
4|4|4|4|4|4|4|4|4|4|
18|18|19|20|20|20|20|20|33.50134770889488|44.29073459216367|
2.175202156334232|3|3|3|3|3|3|5.691398356592574|6.292340237433694|8.42036545212321|
20|20|21|22|25|27.767123287671232|31|31.2700319009195|35.23613595706619|41.96475625718044|
14|15|15|17|21.153846153846153|23.28767123287671|23.678500986193296|25.613248264214675|28.326145552560646|37.53836429552241|
8|8|8|8|8|9|9|9|15.525606469002696|20.257110889923787|
24|24|26|26|28|28|32.576470588235296|37.347820069204154|55.2021563342318|72.02528316417346|
23|23|25|25|32.83288094937508|35.65016702095354|36.97957257110098|37.95148247978437|46.92183665596967|49.51738217536926|
10|11|12|12|18.975741239892184|19.627906976744185|24.75869108768463|25.256389452332655|28.44817969643973|35.20079387284045|
3|3|4|4|5|5.079981948700726|6.385542168674698|7.808245028305995|8.62533692722372|11.253950494402105|
13|14|17|18.376141324881406|19.17808219178082|21.093263276412085|25.017857142857142|28.326145552560646|31.74266581632653|37.53836429552241|
25|25.11359026369168|28|30.56081556189916|37.745974955277276|43.910714285714285|44.244370057699506|44.85175202156334|52.87595663265306|58.52054257089094|
17.19766734279919|18|19|19|19|24.03529411764706|28.686940966010734|32.77628032345014|41.26046172828069|42.765011878728|
113|113.03488843813386|141|141|157.9764705882353|163|228.76923076923077|248.85983827493263|295.8162366825813|326.4401522802072|
5|5|5|6|6|6|6|7|12.075471698113207|15.755530692162944|
15|16|16|17|17|17.12457233113639|24.839285714285715|29.326145552560646|29.637436224489797|38.26343168096715|
17|18|20|20|20|21|22|23|39.67654986522911|51.76817227424968|
44|46|49|51|69.47227191413238|74.79026955950033|75.05128205128206|83.41967351614979|93.97843665768194|119.14069935556992|
8|8|8|9|9|9|9|9|9|9|
3|4|4|5|5|5.327862751665364|5.674165457184325|5.730023002984911|6|6|
46|55|55|56|57.76257031610764|65|83.05357142857143|97.22911051212938|99.9422831632653|131.49765694814772|
3|3|3|3|3|3|4.109589041095891|4.184210526315789|4.519984987802589|4.651662049861495|
10|10|10|10|12|12|16.100719424460433|16.60245328916723|18.975741239892184|24.75869108768463|
7|7.542393509127789|8.58904109589041|10|10.176768624507412|10.541176470588235|12.07871198568873|12.80053908355795|17.281253405598623|17.506572120885988|
8|8|8|8|8|9|15.098389982110913|18.712474645030426|21.565568092283954|25.56556882562775|
10|10|10|11.313590263691683|12|15.811764705882354|18.118067978533094|19.700808625336926|26.259858181328983|26.284413801120305|
13|13|14|14|16|17.129411764705882|17.875|18.441107266435985|19.26171875|21.16970151922373|
7|7|8|8|9|9.418645837706226|12.303571428571429|14.525606469002696|16.25031887755102|19.53204350447904|
8|8|9|9|9|10.07718242307208|11.344262295081966|12.74227358237033|14.303571428571429|17.428890306122447|
38|38.166531440162274|40|47|51|53.34117647058824|60.41323792486583|86.97843665768194|89.74469252237111|114.06522765745672|
3|3|3|3|3|3|3|3|4.109589041095891|4.519984987802589|
9|10|10|11|11|11|11|11|17.975741239892184|24.033623702239883|
2|2|2|2|2|2|2|2|2|2|
20|21|23|23|23|34.04512110726644|40.89208633093526|44.627180527383366|45.768697272397915|63.555046513254524|
19|20|20|24|39.40161725067385|44.831124211149614|49.30391689267391|52.56882760224061|52.77218133491236|70.13911771388905|
36|36|38|39|47|47|57.41323792486583|71.27150770766863|80.35309973045823|104.2614119339441|
6|6|7|7|7|7|11.145631067961165|12.382505419926478|13.80053908355795|18.006320791043365|
10|10|10|11|12|12.777706645396918|17.07142857142857|20.700808625336926|22.059948979591837|27.009481186565047|
6|6|6|6|6|6|6|7.975609756097561|8.278226144998111|8.626115407495538|
22|22|22|23|23|24|24|26|42.30188679245283|58.67171845598331|
4|4|4.450304259634889|5|5|6|6.549194991055456|8.339035013328811|10.350404312668463|13.504740593282524|
21|22|24|25|40.765652951699465|44.40161725067385|49.02454361054767|56.194164529464324|58.449386790343155|68.65437679233406|
15|15|15|17|17|17|17|17|23.28767123287671|25.613248264214675|
18|20|21|24|40.76096417579358|41.40161725067385|54.018962373130094|55.078087907837656|55.127775912010414|64.220950564328|
3|3|3|3|3|3|3|3|3|3|
23|24|24|25|26|28|36.87671232876713|37.639331957215234|45.1266846361186|57.71988724290001|
16|16|16|17|18|21.274051782041056|29.776280323450134|30.19642857142857|36.79432397959184|40.58980972239377|
25|25|25|26|27|30.231547269216236|42.910714285714285|45.57681940700809|52.28667091836735|60.04626528432662|
7|7|7|7|8|8|8|10|15.525606469002696|20.257110889923787|
45|45|45|47|48|51|54|66|103.8544474393531|141.30147267166032|
3|3|3|3|3|3|3|3|3|3|
28|28|28|31|31|31.548620439947946|46.910714285714285|49.75202156334232|54.6438137755102|66.07356819552314|
14|14|14|14|14|14|17|17|25.150943396226413|32.23612876977063|
12|12|12|13|13|14.226661873976743|19.660714285714285|21.700808625336926|24.585778061224488|27.734548572009793|
11|12|12|14|16.438356164383563|17.627906976744185|18.079939951210356|20.42587601078167|21.987394433581564|27.810136514555982|
17|17|18|20.483633138827088|21|22|29.607142857142858|33.95148247978437|35.44706632653062|46.61711263359028|
31|31|32|32|48.42465753424658|53|53|56.910489772940515|68.00269541778977|89.30653656977209|
