"<java><xml>"
"<language-agnostic>"
"<mysql><sql-server>"
"<c#><java>"
"<php><windows>"
"<windows>"
"<sql-server><database><svn><version-control>"
"<c#><.net>"
"<c#><.net><datetime>"
"<php>"
"<performance><algorithm>"
"<ruby>"
"<c#><datetime>"
"<c#><visual-studio>"
"<c#>"
"<php>"
"<c#><.net><performance>"
"<windows><file>"
"<html>"
"<string><language-agnostic>"
"<python>"
"<.net>"
"<c#><linq><web-services>"
"<iphone><objective-c>"
"<svn><git>"
"<php>"
"<php>"
"<php><eclipse><debugging>"
"<java>"
"<string>"
"<python>"
"<python>"
"<ruby><shell>"
"<linux><unix>"
"<c#>"
"<iphone>"
"<mysql><database>"
"<c#><winforms>"
"<sql-server>"
"<c#>"
"<c#>"
"<sql-server>"
"<database>"
"<mysql><database>"
"<regex>"
"<asp.net><visual-studio><debugging>"
"<.net>"
"<mysql><database>"
"<html>"
"<c#>"
"<python>"
"<html>"
"<svn>"
"<java><string>"
"<language-agnostic>"
"<sql><sql-server><string>"
"<c#><visual-studio>"
"<php><c++><linux>"
"<visual-studio>"
"<sql-server><datetime>"
"<c#><.net><vb.net>"
"<python>"
"<sql-server><database>"
"<python>"
"<c#><vb.net><file>"
"<eclipse>"
"<c>"
"<c#><asp.net-mvc>"
"<python><language-agnostic>"
"<html>"
"<c++><visual-studio>"
"<svn>"
"<linux>"
"<svn><version-control>"
"<asp.net>"
"<mysql><ruby>"
"<sql>"
"<sql><sql-server>"
"<javascript><c#><asp.net>"
"<algorithm><performance>"
"<algorithm><language-agnostic>"
"<ruby>"
"<c#><.net>"
"<database>"
"<php><web-services><visual-studio>"
"<javascript><css>"
"<javascript>"
"<.net><xml>"
"<.net><linq>"
"<mysql><sql>"
"<sql-server>"
"<sql><sql-server><database><oracle>"
"<java>"
"<c#>"
"<javascript><arrays>"
"<regex>"
"<git><version-control>"
"<asp.net>"
"<wpf>"
"<c><string>"
"<java>"
"<html>"
"<svn>"
"<html><css>"
"<c#><.net>"
"<linux><bash>"
"<sql-server>"
"<c#><visual-studio>"
"<windows><shell>"
"<c++><c>"
"<vb.net>"
"<c#>"
"<vb.net>"
"<php>"
"<c#>"
"<asp.net-mvc>"
"<java><file>"
"<unix><shell>"
"<c>"
"<sql-server>"
"<c#><.net>"
"<svn>"
"<javascript>"
"<c#><vb.net><performance>"
"<c#><.net>"
"<asp.net>"
"<linux>"
"<sql><sql-server>"
"<php>"
"<mysql>"
"<php>"
"<javascript><html><css>"
"<performance>"
"<javascript><jquery>"
"<linux><bash>"
"<c#><linq>"
"<c#><string>"
"<css>"
"<c#>"
"<java>"
"<c++><file>"
"<sql-server>"
"<svn>"
"<mysql><regex><string>"
"<c#><winforms>"
"<c>"
"<arrays>"
"<database><language-agnostic>"
"<c#>"
"<bash><shell>"
"<c++>"
"<mysql><sql><database>"
"<algorithm>"
"<c>"
"<sql-server>"
"<javascript>"
"<css>"
"<asp.net><javascript>"
"<c#>"
"<wpf>"
"<.net><wpf>"
"<.net>"
"<c#><arrays>"
"<python><xml>"
"<unix>"
"<sql>"
"<java>"
"<c><file>"
"<c#>"
"<windows><git>"
"<mysql><sql-server><tsql>"
"<c#><.net>"
"<c#><c++><windows>"
"<command-line>"
"<c#><asp.net>"
"<c>"
"<python>"
"<sql-server><database>"
"<javascript><html><css>"
"<c#><.net>"
"<sql-server><database><tsql><datetime>"
"<c#><.net>"
"<objective-c><iphone>"
"<c#><.net><linq>"
"<oracle>"
"<html><css>"
"<c#>"
"<c#><linq>"
"<web-services>"
"<mysql>"
"<php>"
"<javascript>"
"<excel>"
"<xml>"
"<c><file>"
"<c#><asp.net>"
"<sql-server>"
"<c#>"
"<c++><string>"
"<c#>"
"<language-agnostic>"
"<c++>"
"<c#><.net>"
"<php>"
"<c#><.net>"
"<c#><.net><web-services>"
"<java>"
"<.net>"
"<sql><sql-server>"
"<php><mysql>"
"<c#>"
"<java>"
"<javascript><jquery><html>"
"<javascript><html>"
"<linux>"
"<c>"
"<.net>"
"<batch-file>"
"<c#><.net>"
"<windows><batch-file>"
"<c#>"
"<c#><.net><winforms>"
"<c#>"
"<java>"
"<c#>"
"<windows><linux><command-line>"
"<linq>"
"<java><xml>"
"<python>"
"<java>"
"<string>"
"<linux>"
"<c#><.net><excel>"
"<asp.net>"
"<visual-studio>"
"<c#><sql><sql-server>"
"<.net><wpf>"
"<language-agnostic>"
"<xml>"
"<c#><.net>"
"<c#><string>"
"<sql><database>"
"<svn>"
"<c++><linux><eclipse>"
"<linux>"
"<c++><algorithm>"
"<linux><bash><command-line><shell>"
"<sql-server>"
"<c++>"
"<.net>"
"<string>"
"<c#><string>"
"<javascript>"
"<windows>"
"<sql-server>"
"<c#><java>"
"<ruby>"
"<javascript>"
"<linux><bash>"
"<c#>"
"<java><string>"
"<c#><.net><wpf>"
"<javascript>"
"<c#><.net><xml>"
"<python>"
"<asp.net><asp.net-mvc>"
"<c#><wpf>"
"<python>"
"<java>"
"<c#><.net>"
"<command-line>"
"<sql><sql-server>"
"<mysql>"
"<sql>"
"<vb.net>"
"<java><xml>"
"<c#><xml>"
"<php>"
"<sql>"
"<c#><python>"
"<sql>"
"<mysql><database><performance>"
"<javascript>"
"<database>"
"<java>"
"<sql><sql-server><tsql>"
"<sql-server>"
"<c++>"
"<unix><shell>"
"<ruby>"
"<c++><c>"
"<c#><.net><string>"
"<.net><asp.net>"
"<php>"
"<c++>"
"<c#><.net>"
"<javascript><file>"
"<c++>"
"<java>"
"<.net><wpf>"
"<git>"
"<c#>"
"<web-services>"
"<regex>"
"<windows>"
"<iphone>"
"<python>"
"<c#><.net>"
"<c#>"
"<python>"
"<c#><.net><xml>"
"<asp.net>"
"<algorithm>"
"<java>"
"<css><asp.net>"
"<algorithm><excel><language-agnostic>"
"<string>"
"<asp.net>"
"<java>"
"<algorithm>"
"<c++>"
"<c#><xml>"
"<java>"
"<c#><arrays>"
"<c++><linux>"
"<javascript><eclipse>"
"<c#><sql><sql-server>"
"<sql-server>"
"<javascript><jquery><string>"
"<ruby>"
"<python>"
"<javascript>"
"<c>"
"<c>"
"<python>"
"<c><performance>"
"<c><language-agnostic>"
"<c++><c><visual-studio>"
"<objective-c><string>"
"<objective-c>"
"<html>"
"<sql>"
"<bash><unix>"
"<html><css>"
"<mysql>"
"<sql-server><tsql>"
"<c#>"
"<css>"
"<c#><java>"
"<sql><database>"
"<visual-studio>"
"<java>"
"<algorithm><language-agnostic>"
"<php><arrays>"
"<c#>"
"<java>"
"<java>"
"<c#><.net><winforms>"
"<windows><batch-file><command-line>"
"<c++>"
"<php>"
"<mysql>"
"<c#>"
"<jquery>"
"<linq>"
"<c#>"
"<javascript>"
"<javascript>"
"<java>"
"<c#>"
"<javascript><arrays>"
"<c#>"
"<php><string>"
"<java>"
"<c#><asp.net>"
"<visual-studio>"
"<c#>"
"<c++>"
"<algorithm>"
"<visual-studio>"
"<vb.net>"
"<regex><language-agnostic>"
"<php>"
"<iphone>"
"<c++><c>"
"<c#><.net><performance><datetime>"
"<c#><.net>"
"<bash>"
"<html><css>"
"<c#>"
"<sql-server>"
"<mysql><sql>"
"<c++>"
"<java><jquery>"
"<javascript>"
"<java>"
"<sql-server>"
"<version-control>"
"<c++><string>"
"<java><eclipse>"
"<database>"
"<c#>"
"<iphone>"
"<java>"
"<jquery>"
"<javascript><html>"
"<ruby>"
"<c#><regex>"
"<sql><sql-server>"
"<.net><windows>"
"<javascript><jquery>"
"<linux>"
"<javascript>"
"<iphone><objective-c>"
"<oracle>"
"<.net><vb.net><winforms>"
"<windows><batch-file>"
"<c#><.net><sql-server>"
"<sql><sql-server><database><tsql>"
"<c#>"
"<wpf>"
"<javascript><jquery>"
"<php><performance><string>"
"<c#><.net><linq>"
"<c#>"
"<c><linux>"
"<sql><sql-server>"
"<sql><html>"
"<java>"
"<c#><linq>"
"<objective-c>"
"<php><sql><database>"
"<ruby><arrays>"
"<file>"
"<objective-c>"
"<c#><linq>"
"<java><file>"
"<visual-studio>"
