"<c#><.net><datetime>"
"<c#><datetime>"
"<html>"
"<.net>"
"<c#><linq><web-services>"
"<mysql><database>"
"<sql-server>"
"<html>"
"<svn>"
"<java><xml>"
"<mysql><sql-server>"
"<windows>"
"<sql-server><database><svn><version-control>"
"<php>"
"<c#>"
"<php>"
"<string><language-agnostic>"
"<iphone><objective-c>"
"<language-agnostic>"
"<c#><java>"
"<php><windows>"
"<performance><algorithm>"
"<ruby>"
"<c#><visual-studio>"
"<c#><.net><performance>"
"<python>"
"<svn><git>"
"<php>"
"<php><eclipse>"
"<string>"
"<python>"
"<linux><unix>"
"<c#><winforms>"
"<c#>"
"<database>"
"<regex>"
"<mysql><database>"
"<c#><.net>"
"<windows><file>"
"<php>"
"<python>"
"<iphone>"
"<sql-server>"
"<language-agnostic>"
"<python>"
"<sql-server><database>"
"<c#><vb.net><file>"
"<c#><asp.net-mvc>"
"<svn>"
"<svn><version-control>"
"<sql>"
"<.net><linq>"
"<java>"
"<ruby><shell>"
"<c#>"
"<c#>"
"<mysql><database>"
"<asp.net><visual-studio>"
"<.net>"
"<c#>"
"<html>"
"<sql><sql-server><string>"
"<php><c++><linux>"
"<visual-studio>"
"<sql-server><datetime>"
"<c#><.net><vb.net>"
"<eclipse>"
"<c>"
"<html>"
"<linux>"
"<python>"
"<java><string>"
"<c#><visual-studio>"
"<python>"
"<python><language-agnostic>"
"<c++><visual-studio>"
"<asp.net>"
"<algorithm><performance>"
"<algorithm><language-agnostic>"
"<c#><.net>"
"<javascript><css>"
"<javascript>"
"<mysql><sql>"
"<sql-server>"
"<mysql><ruby>"
"<javascript><c#><asp.net>"
"<database>"
"<.net><xml>"
"<java>"
"<c#><.net>"
"<asp.net-mvc>"
"<c>"
"<svn>"
"<c#><.net>"
"<asp.net>"
"<php>"
"<mysql>"
"<sql><sql-server>"
"<ruby>"
"<php><web-services><visual-studio>"
"<sql><sql-server><database><oracle>"
"<c#>"
"<regex>"
"<asp.net>"
"<c><string>"
"<html><css>"
"<sql-server>"
"<java>"
"<javascript><arrays>"
"<git><version-control>"
"<wpf>"
"<html>"
"<c#><visual-studio>"
"<windows><shell>"
"<c++><c>"
"<vb.net>"
"<c#>"
"<vb.net>"
"<sql-server>"
"<javascript>"
"<svn>"
"<linux><bash>"
"<c#>"
"<unix><shell>"
"<c#><.net>"
"<php>"
"<java><file>"
"<c#><vb.net><performance>"
"<sql><sql-server>"
"<javascript><jquery>"
"<linux><bash>"
"<c#><string>"
"<css>"
"<c#><multithreading>"
"<linux>"
"<php>"
"<javascript><html><css>"
"<performance>"
"<c#><linq>"
"<java>"
"<sql-server>"
"<c>"
"<arrays>"
"<database><language-agnostic>"
"<bash><shell>"
"<algorithm>"
"<sql-server>"
"<css>"
"<asp.net><javascript>"
"<.net><wpf>"
"<c++><file>"
"<svn>"
"<mysql><regex><string>"
"<c#>"
"<unix>"
"<sql>"
"<c><file>"
"<c#>"
"<language-agnostic>"
"<c#><winforms>"
"<mysql><sql><database>"
"<c#>"
"<.net>"
"<python><xml>"
"<c#>"
"<c#><c++><windows>"
"<python>"
"<sql-server><database>"
"<c#><.net>"
"<c#>"
"<mysql>"
"<c++>"
"<c>"
"<javascript>"
"<wpf>"
"<c#><arrays>"
"<java>"
"<command-line>"
"<c>"
"<javascript><html><css>"
"<c#><.net>"
"<oracle>"
"<windows><git>"
"<mysql><sql-server><tsql>"
"<c#><.net>"
"<c#><asp.net>"
"<sql-server><database><tsql><datetime>"
"<objective-c><iphone>"
"<c#><.net><linq>"
"<html><css>"
"<php>"
"<excel>"
"<c#><linq>"
"<web-services>"
"<javascript>"
"<xml>"
"<c#><asp.net>"
"<sql-server>"
"<c++><string>"
"<c#><.net>"
"<c#><.net>"
"<c#>"
"<java>"
"<multithreading>"
"<c#>"
"<.net>"
"<c><file>"
"<c++>"
"<php>"
"<c#><.net><web-services>"
"<.net>"
"<javascript><jquery><html>"
"<sql><sql-server>"
"<php><mysql>"
"<java>"
"<javascript><html>"
"<linux>"
"<c>"
"<batch-file>"
"<c#>"
"<linq>"
"<java>"
"<c#><.net>"
"<c#><.net><winforms>"
"<c#>"
"<string>"
"<c#><sql><sql-server>"
"<linux>"
"<windows><batch-file>"
"<c#>"
"<java>"
"<windows><linux><command-line>"
"<java><xml>"
"<linux>"
"<c#><.net><excel>"
"<visual-studio>"
"<python>"
"<asp.net>"
"<.net><wpf>"
"<c#><string>"
"<svn>"
"<sql-server>"
"<string>"
"<c#><string>"
"<language-agnostic>"
"<sql><database>"
"<sql-server>"
"<ruby>"
"<xml>"
"<c#><.net>"
"<c++><linux><eclipse>"
"<c++><algorithm>"
"<linux><bash><command-line><shell>"
"<c++>"
"<.net>"
"<c#><java>"
"<linux><bash>"
"<javascript>"
"<windows>"
"<java><string>"
"<mysql>"
"<vb.net>"
"<javascript>"
"<sql><sql-server><tsql>"
"<javascript>"
"<javascript>"
"<c#>"
"<c#><.net><wpf>"
"<python>"
"<python>"
"<sql>"
"<c#><.net><xml>"
"<asp.net><asp.net-mvc>"
"<java>"
"<command-line>"
"<java><xml>"
"<c#><xml>"
"<c#><python>"
"<mysql><database><performance>"
"<java>"
"<c#><wpf>"
"<c#><.net>"
"<sql><sql-server>"
"<php>"
"<sql>"
"<.net><wpf>"
"<c#><.net><xml>"
"<c++>"
"<c#><xml>"
"<java>"
"<c#><arrays>"
"<sql>"
"<database>"
"<c#><.net><string>"
"<php>"
"<c#><.net>"
"<javascript><file>"
"<c++>"
"<sql-server>"
"<c++>"
"<unix><shell>"
"<ruby>"
"<c++><c>"
"<.net><asp.net>"
"<c++>"
"<java>"
"<git>"
"<web-services>"
"<c#><multithreading>"
"<windows>"
"<iphone>"
"<python>"
"<c#><.net>"
"<python>"
"<java>"
"<algorithm><excel><language-agnostic>"
"<string>"
"<asp.net>"
"<regex>"
"<c#>"
"<algorithm>"
"<css><asp.net>"
"<java>"
"<asp.net>"
"<algorithm>"
"<c++><linux>"
"<c#><sql><sql-server>"
"<ruby>"
"<c><language-agnostic>"
"<sql-server><tsql>"
"<c#><java>"
"<visual-studio>"
"<javascript><eclipse>"
"<sql-server>"
"<javascript><jquery><string>"
"<javascript>"
"<c>"
"<c>"
"<c><performance>"
"<sql>"
"<css>"
"<python>"
"<html><css>"
"<java>"
"<java>"
"<python>"
"<c++><c><visual-studio>"
"<objective-c><string>"
"<objective-c>"
"<html>"
"<bash><unix>"
"<mysql>"
"<c#>"
"<sql><database>"
"<algorithm><language-agnostic>"
"<php><arrays>"
"<c#>"
"<c#><.net><winforms>"
"<c++>"
"<c#>"
"<c#>"
"<javascript>"
"<java>"
"<windows><batch-file><command-line>"
"<jquery>"
"<java>"
"<c#>"
"<c#>"
"<c#><asp.net>"
"<visual-studio>"
"<php>"
"<linq>"
"<javascript><arrays>"
"<c++>"
"<mysql>"
"<javascript>"
"<java>"
"<c#>"
"<regex><language-agnostic>"
"<c#><.net>"
"<sql-server>"
"<mysql><sql>"
"<c++>"
"<php><string>"
"<visual-studio>"
"<algorithm>"
"<vb.net>"
"<php>"
"<iphone>"
"<c++><c>"
"<c#><.net><performance><datetime>"
"<html><css>"
"<javascript>"
"<sql-server>"
"<database>"
"<bash>"
"<c#>"
"<java>"
"<c++><string>"
"<java><eclipse>"
"<c#>"
"<java>"
"<ruby>"
"<.net><vb.net><winforms>"
"<c#><.net><sql-server>"
"<java><jquery>"
"<version-control>"
"<javascript><html>"
"<javascript><jquery>"
"<javascript><multithreading>"
"<iphone><objective-c>"
"<oracle>"
"<c#>"
"<windows><batch-file>"
"<sql><sql-server><database><tsql>"
"<wpf>"
"<c#>"
"<sql><html>"
"<java>"
"<file>"
"<iphone>"
"<jquery>"
"<c#><regex>"
"<sql><sql-server>"
"<.net><windows>"
"<linux>"
"<javascript><jquery>"
"<c#><asp.net>"
"<java>"
"<c#>"
"<sql-server>"
"<c#><linq>"
"<java>"
"<c#>"
"<python>"
"<sql>"
"<html>"
"<php>"
